targetted_decisions = {
	### Royal Power decisions
	# Recognise Noble
	earthking_ra_boost_relations = {
		filter = independent_rulers
		ai_target_filter = independent_rulers
		from_potential = {
			has_landed_title = e_earth_kingdom
			prisoner = no
			e_earth_kingdom = {
				NOT = { has_law = ek_unity_0 }
			}
		}
		
		potential = {
			pays_tribute_to = FROM
			NOT = { has_opinion_modifier = { who = FROM modifier = opinion_ra_gave_honour } }
		}
		
		allow = {
			FROM = {
				conditional_tooltip = {
					trigger = { ROOT = { tier = BARON } }
					custom_tooltip = {
						text = ra_5A_tooltip
						hidden_tooltip = {
							check_variable = { which = global_royalAuthority value = 5 }
						}
					}
				}
				conditional_tooltip = {
					trigger = { ROOT = { tier = COUNT } }
					custom_tooltip = {
						text = ra_5A_tooltip
						hidden_tooltip = {
							check_variable = { which = global_royalAuthority value = 5 }
						}
					}
				}
				conditional_tooltip = {
					trigger = { ROOT = { tier = DUKE } }
					custom_tooltip = {
						text = ra_10A_tooltip
						hidden_tooltip = {
							check_variable = { which = global_royalAuthority value = 10 }
						}
					}
				}
				conditional_tooltip = {
					trigger = { ROOT = { tier = KING } }
					custom_tooltip = {
						text = ra_20_tooltip
						hidden_tooltip = {
							check_variable = { which = global_royalAuthority value = 20 }
						}
					}
				}
				conditional_tooltip = {
					trigger = { ROOT = { tier = EMPEROR } }
					custom_tooltip = {
						text = ra_20_tooltip
						hidden_tooltip = {
							check_variable = { which = global_royalAuthority value = 20 }
						}
					}
				}
			}
		}
		
		effect = {
			ROOT = {
				opinion = { modifier = opinion_ra_gave_honour who = FROM years = 20 }
				hidden_tooltip = {
					character_event = { id = earthking.57 }
				}
			}
			FROM = {
				if = {
					limit = {
						ROOT = {
							OR = {
								tier = BARON
								tier = COUNT
							}
						}
					}
					custom_tooltip = {
						text = ra_spend_5_tooltip
						hidden_tooltip = {
							subtract_variable = { which = global_royalAuthority value = 5 }
						}
					}
				}
				if = {
					limit = {
						ROOT = {
							tier = DUKE
						}
					}
					custom_tooltip = {
						text = ra_spend_10_tooltip
						hidden_tooltip = {
							subtract_variable = { which = global_royalAuthority value = 10 }
						}
					}
				}
				if = {
					limit = {
						ROOT = {
							OR = {
								tier = KING
								tier = EMPEROR
							}
						}
					}
					custom_tooltip = {
						text = ra_spend_20_tooltip
						hidden_tooltip = {
							subtract_variable = { which = global_royalAuthority value = 20 }
						}
					}
				}
			}
		}
		
		revoke_allowed = {
			always = no
		}
		ai_will_do = {
			factor = 0
		}
	}
	# Annex Domain
	earthking_ra_annex_tributary = {
		filter = independent_rulers
		ai_target_filter = independent_rulers
		from_potential = {
			has_landed_title = e_earth_kingdom
			prisoner = no
			e_earth_kingdom = {
				OR = {
					has_law = ek_unity_2
					has_law = ek_unity_3
				}
			}
		}
		
		potential = {
			pays_tribute_to = FROM
			shares_realm_border_with = FROM
			NOT = { tier = EMPEROR }
		}
		
		allow = {
			ROOT = {
				opinion = { who = FROM value = 40 }
			}
			FROM = {
				conditional_tooltip = {
					trigger = { ROOT = { tier = BARON } }
					custom_tooltip = {
						text = ra_5A_tooltip
						hidden_tooltip = {
							check_variable = { which = global_royalAuthority value = 5 }
						}
					}
				}
				conditional_tooltip = {
					trigger = { ROOT = { tier = COUNT } }
					custom_tooltip = {
						text = ra_20_tooltip
						hidden_tooltip = {
							check_variable = { which = global_royalAuthority value = 20 }
						}
					}
				}
				conditional_tooltip = {
					trigger = { ROOT = { tier = DUKE } }
					custom_tooltip = {
						text = ra_40_tooltip
						hidden_tooltip = {
							check_variable = { which = global_royalAuthority value = 40 }
						}
					}
				}
				conditional_tooltip = {
					trigger = { ROOT = { tier = KING } }
					custom_tooltip = {
						text = ra_80_tooltip
						hidden_tooltip = {
							check_variable = { which = global_royalAuthority value = 80 }
						}
					}
				}
			}
		}
		
		effect = {
			ROOT = {
				set_defacto_liege = FROM
				hidden_tooltip = {
					character_event = { id = earthking.58 }
				}
			}
			FROM = {
				if = {
					limit = {
						ROOT = {
							tier = BARON
						}
					}
					custom_tooltip = {
						text = ra_spend_5_tooltip
						hidden_tooltip = {
							subtract_variable = { which = global_royalAuthority value = 5 }
						}
					}
				}
				if = {
					limit = {
						ROOT = {
							tier = COUNT
						}
					}
					custom_tooltip = {
						text = ra_spend_20_tooltip
						hidden_tooltip = {
							subtract_variable = { which = global_royalAuthority value = 20 }
						}
					}
				}
				if = {
					limit = {
						ROOT = {
							tier = DUKE
						}
					}
					custom_tooltip = {
						text = ra_spend_40_tooltip
						hidden_tooltip = {
							subtract_variable = { which = global_royalAuthority value = 40 }
						}
					}
				}
				if = {
					limit = {
						ROOT = {
							tier = KING
						}
					}
					custom_tooltip = {
						text = ra_spend_80_tooltip
						hidden_tooltip = {
							subtract_variable = { which = global_royalAuthority value = 80 }
						}
					}
				}
			}
		}
		
		revoke_allowed = {
			always = no
		}
		ai_will_do = {
			factor = 1
		}
	}
	# Demand Reverence
	earthking_ra_demand_conversion = {
		filter = independent_rulers
		ai_target_filter = independent_rulers
		from_potential = {
			has_landed_title = e_earth_kingdom
			religion = earth_monarchism
			prisoner = no
			e_earth_kingdom = {
				has_law = ek_unity_3
			}
		}
		
		potential = {
			pays_tribute_to = FROM
			NOT = { religion = earth_monarchism }
		}
		
		allow = {
			ROOT = {
				opinion = { who = FROM value = 40 }
				NOR = {
					trait = zealous
					religion = children_of_si_wong
					religion = followers_of_kyoshi
					religion = way_of_chin
				}
			}
			FROM = {
				conditional_tooltip = {
					trigger = { ROOT = { tier = BARON } }
					custom_tooltip = {
						text = ra_5A_tooltip
						hidden_tooltip = {
							check_variable = { which = global_royalAuthority value = 5 }
						}
					}
				}
				conditional_tooltip = {
					trigger = { ROOT = { tier = COUNT } }
					custom_tooltip = {
						text = ra_5A_tooltip
						hidden_tooltip = {
							check_variable = { which = global_royalAuthority value = 5 }
						}
					}
				}
				conditional_tooltip = {
					trigger = { ROOT = { tier = DUKE } }
					custom_tooltip = {
						text = ra_10A_tooltip
						hidden_tooltip = {
							check_variable = { which = global_royalAuthority value = 10 }
						}
					}
				}
				conditional_tooltip = {
					trigger = { ROOT = { tier = KING } }
					custom_tooltip = {
						text = ra_20_tooltip
						hidden_tooltip = {
							check_variable = { which = global_royalAuthority value = 20 }
						}
					}
				}
				conditional_tooltip = {
					trigger = { ROOT = { tier = EMPEROR } }
					custom_tooltip = {
						text = ra_20_tooltip
						hidden_tooltip = {
							check_variable = { which = global_royalAuthority value = 20 }
						}
					}
				}
			}
		}
		
		effect = {
			ROOT = {
				religion = earth_monarchism
				hidden_tooltip = {
					character_event = { id = earthking.59 }
				}
			}
			FROM = {
				if = {
					limit = {
						ROOT = {
							OR = {
								tier = BARON
								tier = COUNT
							}
						}
					}
					custom_tooltip = {
						text = ra_spend_5_tooltip
						hidden_tooltip = {
							subtract_variable = { which = global_royalAuthority value = 5 }
						}
					}
				}
				if = {
					limit = {
						ROOT = {
							tier = DUKE
						}
					}
					custom_tooltip = {
						text = ra_spend_10_tooltip
						hidden_tooltip = {
							subtract_variable = { which = global_royalAuthority value = 10 }
						}
					}
				}
				if = {
					limit = {
						ROOT = {
							OR = {
								tier = KING
								tier = EMPEROR
							}
						}
					}
					custom_tooltip = {
						text = ra_spend_20_tooltip
						hidden_tooltip = {
							subtract_variable = { which = global_royalAuthority value = 20 }
						}
					}
				}
			}
		}
		
		revoke_allowed = {
			always = no
		}
		ai_will_do = {
			factor = 0
		}
	}
}

title_decisions = {
	### Royal Power decisions
	earthking_ra_loyalty_campaign = { # Loyalty Campaign
		is_high_prio = yes
		only_playable = yes
		filter = owned
		ai_target_filter = owned
		ai_check_interval = 12
		
		from_potential = {
			has_landed_title = e_earth_kingdom
			religion = earth_monarchism
			e_earth_kingdom = {
				has_law = ek_unity_3
			}
		}
			
		potential = {
			tier = COUNT
			de_jure_liege_or_above = e_earth_kingdom
		}
		
		allow = {
			FROM = {
				wealth = 100
				custom_tooltip = {
					text = ra_20_tooltip
					hidden_tooltip = {
						check_variable = { which = global_royalAuthority value = 20 }
					}
				}
			}
		}
		
		effect = {
			location = {
				religion = earth_monarchism
			}
			FROM = {
				wealth = -100
				custom_tooltip = {
					text = ra_spend_20_tooltip
					hidden_tooltip = {
						subtract_variable = { which = global_royalAuthority value = 20 }
					}
				}
			}
		}
		revoke_allowed = {
			always = no
		}
		ai_will_do = {
			factor = 1
		}
	}
}

decisions = {
	### Royal Power decisions
	earthking_ra_sell_titles = { # Sell Titles
		is_high_prio = yes
		only_playable = yes
		ai_check_interval = 12
		
		potential = {
			has_landed_title = e_earth_kingdom
		}
		allow = {
			prisoner = no
			custom_tooltip = {
				text = ra_20_tooltip
				hidden_tooltip = {
					check_variable = { which = global_royalAuthority value = 20 }
				}
			}
		}
		effect = {
			custom_tooltip = {
				text = ra_spend_20_tooltip
				hidden_tooltip = {
					subtract_variable = { which = global_royalAuthority value = 20 }
				}
			}
			scaled_wealth = { value = 0.1 min = 100 }
		}
		revoke_allowed = {
			always = no
		}
		ai_will_do = {
			factor = 1
			modifier = {
				factor = 0.1
			}
			modifier = {
				factor = 0
				wealth = 1
			}
		}
	}
	
	restoration_ambitions_10 = { # Restore Earth Monarchism
		is_high_prio = yes
		only_playable = yes
		ai_check_interval = 12
		potential = {
			has_landed_title = e_earth_kingdom
			NOT = { religion = earth_monarchism }
			e_earth_kingdom = {
				has_law = ek_unity_3
			}
		}
		allow = {
			prisoner = no
			prestige = 500
			custom_tooltip = {
				text = ra_10_tooltip
				hidden_tooltip = {
					check_variable = { which = global_royalAuthority value = 100 }
				}
			}
		}
		effect = {
			custom_tooltip = {
				text = ra_spend_100_tooltip
				hidden_tooltip = {
					subtract_variable = { which = global_royalAuthority value = 100 }
					character_event = { id = earthking.42 }
				}
			}
			prestige = -500
			religion = earth_monarchism
		}
		revoke_allowed = {
			always = no
		}
		ai_will_do = {
			factor = 1
		}
	}

	### Record of Flags
	# earthking_in_power = Earth King is independent
	# restoration_ambition = Earth King is active
	# restoration_ambition_delay = Focus Failure
	# restoration_ambition_0 = The Earth King has started the Restoration
	# restoration_ambition_1 = The Earth King has built the Mail Service
	# restoration_ambition_2 = The Royal Guard
	# restoration_ambition_3 = Watch the Watchmen
	# restoration_ambition_4 = Royal Rights
	# restoration_ambition_5 = Secure the Palace
	# restoration_ambition_6 = Seize Power
	# restoration_ambition_7 = Strong Rule
	# restoration_ambition_8 = Absolute Power
	# restoration_ambition_9 = Restore The Wall
	
	break_away_from_earth_kingdom = { # Option to break away from Earth Kingdom
		is_high_prio = yes
		only_playable = yes
		ai_check_interval = 12
		potential = {
			is_ruler = yes
			independent = yes
			OR = {
				tier = DUKE
				tier = KING
				tier = EMPEROR
			}
			is_adult = yes
			e_earth_kingdom = {
				owner = {
					ROOT = {
						pays_tribute_to = PREVPREV
					}
				}
			}
		}
		allow = {
			prisoner = no
		}
		effect = {
			hidden_tooltip = {
				suzerain = {
					remove_tributary = PREV
					character_event = { id = ATLAE.208 }
				}
				ROOT = {
					character_event = { id = ATLAE.209 }
					set_character_flag = earth_kingdom_rebel
				}
				any_independent_ruler = {
					limit = {
						de_jure_liege_or_above = e_earth_kingdom
						is_tributary = yes
					}
					character_event = { id = ATLAE.210 }
				}
			}
		}
		revoke_allowed = {
			always = no
		}
		ai_will_do = {
			factor = 0
		}
	}
	
	join_royal_campaign = { # Option to join Royal Campaign
		is_high_prio = yes
		only_playable = yes
		ai_check_interval = 6
		potential = {
			has_global_flag = ek_crusade
			is_ruler = yes
			independent = yes
			is_primary_war_attacker = no
			is_primary_war_defender = no
			e_earth_kingdom = {
				owner = {
					ROOT = {
						pays_tribute_to = PREVPREV
					}
				}
			}
		}
		allow = {
			prisoner = no
		}
		effect = {
			e_earth_kingdom = {
				owner = {
					any_war = {
						limit = {
							using_cb = earth_offensive_crusade
						}
						any_attacker = {
							limit = {
								is_primary_war_attacker = yes
							}
							ROOT = {
								join_attacker_wars = PREV
							}
						}
					}
				}
			}
		}
		revoke_allowed = {
			always = no
		}
		ai_will_do = {
			factor = 1
			modifier = {
				factor = 0.1
				NOT = { realm_levies = 4000 }
			}
			modifier = {
				factor = 0.1
			}
			modifier = {
				factor = 0
				trait = craven
			}
			modifier = {
				factor = 0
				OR = {
					culture = sandbender
					culture = barbarian
				}
			}
		}
	}
	
	pledge_to_earth_king = { # Option to join the Earth Kingdom
		is_high_prio = yes
		only_playable = yes
		ai_check_interval = 12
		potential = {
			is_ruler = yes
			independent = yes
			is_tributary = no
			mercenary = no
			holy_order = no
			rebel = no
			culture_group = earth_kingdom_culture
			NOT = { has_character_flag = earth_kingdom_rebel }
			NOT = { tier = EMPEROR }
		}
		allow = {
			prisoner = no
			war = no
		}
		effect = {
			hidden_tooltip = {
				e_earth_kingdom = {
					owner = {
						make_tributary = { who = ROOT percentage = 0.1 }
						character_event = { id = ATLAE.212 }
					}
				}
			}
		}
		revoke_allowed = {
			always = no
		}
		ai_will_do = {
			factor = 0
		}
	}
	
	rebuild_empire = { # reform Chin's Empire
		is_high_prio = yes
		only_playable = yes
		ai_check_interval = 24
		potential = {
			is_ruler = yes
			independent = yes
			is_adult = yes
			religion = way_of_chin
		}
		allow = {
			NOT = { is_title_active = e_chin_empire }
			is_tributary = no
			prisoner = no
			c_chin = {
				owner = {
					OR = {
						is_liege_or_above = ROOT
						de_facto_liege = ROOT
					}
				}
			}
			c_omashu = {
				owner = {
					OR = {
						is_liege_or_above = ROOT
						de_facto_liege = ROOT
					}
				}
			}
			c_gaoling = {
				owner = {
					OR = {
						is_liege_or_above = ROOT
						de_facto_liege = ROOT
					}
				}
			}
			c_dagong = {
				owner = {
					OR = {
						is_liege_or_above = ROOT
						de_facto_liege = ROOT
					}
				}
			}
		}
		effect = {
			e_chin_empire = {
				activate_title = { title = THIS status = yes } # Otherwise grant_title doesn't work
				grant_title = ROOT
				copy_title_laws = PREV
				hidden_tooltip = {
					make_primary_title = yes # Automatic for AI, but more friendly/visible for the player
				}
			}
			prestige = 1000
		}
		revoke_allowed = {
			always = no
		}
		ai_will_do = {
			factor = 1
		}
	}
	
	restoration_ambitions_0 = { # Beginning of Focus Trees
		is_high_prio = yes
		only_playable = yes
		potential = {
			NOT = { has_global_flag = restoration_ambition_0 }
			is_ruler = yes
			is_adult = yes
			prisoner = no
			trait = earthkingpuppet
		}
		allow = {
			prisoner = no
		}
		effect = {
			hidden_tooltip = {
				set_global_flag = restoration_ambition_0
				character_event = { id = ATLAE.200 }
			}
		}
		revoke_allowed = {
			always = no
		}
		ai_will_do = {
			factor = 1
		}
	}
	
	restoration_ambitions_1 = { # The Royal Mail Service - 1
		is_high_prio = yes
		only_playable = yes
		ai_check_interval = 12
		potential = {
			has_global_flag = restoration_ambition_0
			NOT = { has_global_flag = restoration_ambition }
			NOT = { has_global_flag = restoration_ambition_1 }
			is_ruler = yes
			is_adult = yes
			prisoner = no
			trait = earthkingpuppet
		}
		allow = {
			prisoner = no
			treasury = 150
			custom_tooltip = {
				text = EVTTOOLTIPDELAY
				hidden_tooltip = {
					OR = {
						NOT = { has_global_flag = restoration_ambition_delay }
						had_global_flag = { flag = restoration_ambition_delay days = 1020 }
					}
				}
			}
		}
		effect = {
			set_global_flag = restoration_ambition
			wealth = -150
			hidden_tooltip = {
				character_event = { id = ATLAE.201 }
			}
		}
		revoke_allowed = {
			always = no
		}
		ai_will_do = {
			factor = 1
		}
	}
	
	restoration_ambitions_2 = { # The Royal Guard - 2
		is_high_prio = yes
		only_playable = yes
		ai_check_interval = 12
		potential = {
			has_global_flag = restoration_ambition_1
			NOT = { has_global_flag = restoration_ambition }
			NOT = { has_global_flag = restoration_ambition_2 }
			is_ruler = yes
			is_adult = yes
			prisoner = no
			trait = earthkingpuppet
		}
		allow = {
			prisoner = no
			treasury = 200
		}
		effect = {
			set_global_flag = restoration_ambition
			wealth = -200
			hidden_tooltip = {
				character_event = { id = ATLAE.219 }
			}
		}
		revoke_allowed = {
			always = no
		}
		ai_will_do = {
			factor = 1
		}
	}
	
	restoration_ambitions_3 = { # Watch the Watchmen - 3
		is_high_prio = yes
		only_playable = yes
		ai_check_interval = 12
		potential = {
			has_global_flag = restoration_ambition_2
			NOT = { has_global_flag = restoration_ambition }
			NOT = { has_global_flag = restoration_ambition_3 }
			is_ruler = yes
			is_adult = yes
			prisoner = no
			trait = earthkingpuppet
		}
		allow = {
			prisoner = no
			treasury = 100
		}
		effect = {
			set_global_flag = restoration_ambition
			wealth = -100
			hidden_tooltip = {
				character_event = { id = ATLAE.225 }
			}
		}
		revoke_allowed = {
			always = no
		}
		ai_will_do = {
			factor = 1
		}
	}
	
	restoration_ambitions_4 = { # Allies of the King - 4
		is_high_prio = yes
		only_playable = yes
		ai_check_interval = 12
		potential = {
			has_global_flag = restoration_ambition_3
			NOT = { has_global_flag = restoration_ambition }
			NOT = { has_global_flag = restoration_ambition_4 }
			is_ruler = yes
			is_adult = yes
			prisoner = no
			trait = earthkingpuppet
		}
		allow = {
			prisoner = no
			treasury = 100
		}
		effect = {
			set_global_flag = restoration_ambition
			wealth = -100
			hidden_tooltip = {
				character_event = { id = ATLAE.231 }
			}
		}
		revoke_allowed = {
			always = no
		}
		ai_will_do = {
			factor = 1
		}
	}
	
	restoration_ambitions_5 = { # Secure the Palace - 5
		is_high_prio = yes
		only_playable = yes
		ai_check_interval = 12
		potential = {
			has_global_flag = restoration_ambition_4
			NOT = { has_global_flag = restoration_ambition }
			NOT = { has_global_flag = restoration_ambition_5 }
			is_ruler = yes
			is_adult = yes
			prisoner = no
			trait = earthkingpuppet
		}
		allow = {
			prisoner = no
			war = no
			regent = { 
				trait = headdaili
			}
		}
		effect = {
			set_global_flag = restoration_ambition
			hidden_tooltip = {
				character_event = { id = ATLAE.241 }
			}
		}
		revoke_allowed = {
			always = no
		}
		ai_will_do = {
			factor = 1
		}
	}
	
	restoration_ambitions_9 = { # Restore The Wall - 9
		is_high_prio = yes
		only_playable = yes
		ai_check_interval = 12
		potential = {
			has_global_flag = restoration_ambition_0
			NOT = { has_global_flag = restoration_ambition }
			NOT = { has_global_flag = restoration_ambition_9 }
			is_ruler = yes
			is_adult = yes
			prisoner = no
			trait = earthkingpuppet
		}
		allow = {
			prisoner = no
			treasury = 750
		}
		effect = {
			set_global_flag = restoration_ambition
			wealth = -750
			hidden_tooltip = {
				character_event = { id = ATLAE.213 }
			}
		}
		revoke_allowed = {
			always = no
		}
		ai_will_do = {
			factor = 1
		}
	}
	
}